EDA-Cuisines – Welcome to A1
…
Finding Data

data(package = "tastyR")

Read Data

#Getting the Data
class(cuisines)

[1] "spec_tbl_df" "tbl_df"      "tbl"         "data.frame" 

cuisines

# A tibble: 2,218 × 17
   name     country url   author date_published ingredients calories   fat carbs
   <chr>    <chr>   <chr> <chr>  <date>         <chr>          <dbl> <dbl> <dbl>
 1 Saganak… Greek   http… John … 2024-02-07     1 (4 ounce…      391    25    15
 2 Coney I… Jewish  http… John … 2024-11-26     2 ¾ cups a…      301    17    31
 3 Diana's… Austra… http… CHIPP… 2022-07-14     1 ½ cups w…       64     3     9
 4 Chilean… Chilean http… Heidi  2025-01-31     ½ cup chop…      106     9     7
 5 Tex-Mex… Tex-Mex http… Ann    2025-02-18     2 cups all…      449    23    58
 6 Newfoun… Canadi… http… MomWh… 2022-08-12     1 (3 pound…      958    24   144
 7 Pasta e… Italian http… Buckw… 2023-12-12     1 cup dry …      378    10    59
 8 Danish … Danish  http… TheOt… 2020-06-19     4 cups all…       90     5    10
 9 Lemon P… Amish … http… Laura… 2025-01-21     2 cups all…      157     6    25
10 Pan con… Spanish http… Luis … 2025-06-02     1 large to…      322    16    39
# ℹ 2,208 more rows
# ℹ 8 more variables: protein <dbl>, avg_rating <dbl>, total_ratings <dbl>,
#   reviews <dbl>, prep_time <dbl>, cook_time <dbl>, total_time <dbl>,
#   servings <dbl>
…
Cleaning and Munging Data

#Cleaning the Data
cuisines_modified <- cuisines %>%
  janitor::clean_names(case = "snake") # clean names

cuisines_modified

# A tibble: 2,218 × 17
   name     country url   author date_published ingredients calories   fat carbs
   <chr>    <chr>   <chr> <chr>  <date>         <chr>          <dbl> <dbl> <dbl>
 1 Saganak… Greek   http… John … 2024-02-07     1 (4 ounce…      391    25    15
 2 Coney I… Jewish  http… John … 2024-11-26     2 ¾ cups a…      301    17    31
 3 Diana's… Austra… http… CHIPP… 2022-07-14     1 ½ cups w…       64     3     9
 4 Chilean… Chilean http… Heidi  2025-01-31     ½ cup chop…      106     9     7
 5 Tex-Mex… Tex-Mex http… Ann    2025-02-18     2 cups all…      449    23    58
 6 Newfoun… Canadi… http… MomWh… 2022-08-12     1 (3 pound…      958    24   144
 7 Pasta e… Italian http… Buckw… 2023-12-12     1 cup dry …      378    10    59
 8 Danish … Danish  http… TheOt… 2020-06-19     4 cups all…       90     5    10
 9 Lemon P… Amish … http… Laura… 2025-01-21     2 cups all…      157     6    25
10 Pan con… Spanish http… Luis … 2025-06-02     1 large to…      322    16    39
# ℹ 2,208 more rows
# ℹ 8 more variables: protein <dbl>, avg_rating <dbl>, total_ratings <dbl>,
#   reviews <dbl>, prep_time <dbl>, cook_time <dbl>, total_time <dbl>,
#   servings <dbl>

cuisines_clean <- cuisines_modified %>% 
tidyr::drop_na()
cuisines_clean

# A tibble: 2,058 × 17
   name     country url   author date_published ingredients calories   fat carbs
   <chr>    <chr>   <chr> <chr>  <date>         <chr>          <dbl> <dbl> <dbl>
 1 Saganak… Greek   http… John … 2024-02-07     1 (4 ounce…      391    25    15
 2 Coney I… Jewish  http… John … 2024-11-26     2 ¾ cups a…      301    17    31
 3 Diana's… Austra… http… CHIPP… 2022-07-14     1 ½ cups w…       64     3     9
 4 Chilean… Chilean http… Heidi  2025-01-31     ½ cup chop…      106     9     7
 5 Tex-Mex… Tex-Mex http… Ann    2025-02-18     2 cups all…      449    23    58
 6 Newfoun… Canadi… http… MomWh… 2022-08-12     1 (3 pound…      958    24   144
 7 Pasta e… Italian http… Buckw… 2023-12-12     1 cup dry …      378    10    59
 8 Lemon P… Amish … http… Laura… 2025-01-21     2 cups all…      157     6    25
 9 Pan con… Spanish http… Luis … 2025-06-02     1 large to…      322    16    39
10 Traci's… Filipi… http… Traci… 2022-08-28     2 tablespo…        4     0     1
# ℹ 2,048 more rows
# ℹ 8 more variables: protein <dbl>, avg_rating <dbl>, total_ratings <dbl>,
#   reviews <dbl>, prep_time <dbl>, cook_time <dbl>, total_time <dbl>,
#   servings <dbl>

cuisines_clean %>% 
  naniar::replace_with_na_all(condition = ~ .x %in% common_na_numbers) %>%
  replace_with_na_all(condition = ~ .x %in% common_na_strings)

# A tibble: 2,058 × 17
   name     country url   author date_published ingredients calories   fat carbs
   <chr>    <chr>   <chr> <chr>  <date>         <chr>          <dbl> <dbl> <dbl>
 1 Saganak… Greek   http… John … 2024-02-07     1 (4 ounce…      391    25    15
 2 Coney I… Jewish  http… John … 2024-11-26     2 ¾ cups a…      301    17    31
 3 Diana's… Austra… http… CHIPP… 2022-07-14     1 ½ cups w…       64     3     9
 4 Chilean… Chilean http… Heidi  2025-01-31     ½ cup chop…      106     9     7
 5 Tex-Mex… Tex-Mex http… Ann    2025-02-18     2 cups all…      449    23    58
 6 Newfoun… Canadi… http… MomWh… 2022-08-12     1 (3 pound…      958    24   144
 7 Pasta e… Italian http… Buckw… 2023-12-12     1 cup dry …      378    10    59
 8 Lemon P… Amish … http… Laura… 2025-01-21     2 cups all…      157     6    25
 9 Pan con… Spanish http… Luis … 2025-06-02     1 large to…      322    16    39
10 Traci's… Filipi… http… Traci… 2022-08-28     2 tablespo…        4     0     1
# ℹ 2,048 more rows
# ℹ 8 more variables: protein <dbl>, avg_rating <dbl>, total_ratings <dbl>,
#   reviews <dbl>, prep_time <dbl>, cook_time <dbl>, total_time <dbl>,
#   servings <dbl>

cuisines_clean

# A tibble: 2,058 × 17
   name     country url   author date_published ingredients calories   fat carbs
   <chr>    <chr>   <chr> <chr>  <date>         <chr>          <dbl> <dbl> <dbl>
 1 Saganak… Greek   http… John … 2024-02-07     1 (4 ounce…      391    25    15
 2 Coney I… Jewish  http… John … 2024-11-26     2 ¾ cups a…      301    17    31
 3 Diana's… Austra… http… CHIPP… 2022-07-14     1 ½ cups w…       64     3     9
 4 Chilean… Chilean http… Heidi  2025-01-31     ½ cup chop…      106     9     7
 5 Tex-Mex… Tex-Mex http… Ann    2025-02-18     2 cups all…      449    23    58
 6 Newfoun… Canadi… http… MomWh… 2022-08-12     1 (3 pound…      958    24   144
 7 Pasta e… Italian http… Buckw… 2023-12-12     1 cup dry …      378    10    59
 8 Lemon P… Amish … http… Laura… 2025-01-21     2 cups all…      157     6    25
 9 Pan con… Spanish http… Luis … 2025-06-02     1 large to…      322    16    39
10 Traci's… Filipi… http… Traci… 2022-08-28     2 tablespo…        4     0     1
# ℹ 2,048 more rows
# ℹ 8 more variables: protein <dbl>, avg_rating <dbl>, total_ratings <dbl>,
#   reviews <dbl>, prep_time <dbl>, cook_time <dbl>, total_time <dbl>,
#   servings <dbl>
…
cuisines_clean2 <- cuisines_clean %>% 
  dplyr::select(-c(url, date_published))
cuisines_clean2

# A tibble: 2,058 × 15
   name       country author ingredients calories   fat carbs protein avg_rating
   <chr>      <chr>   <chr>  <chr>          <dbl> <dbl> <dbl>   <dbl>      <dbl>
 1 Saganaki … Greek   John … 1 (4 ounce…      391    25    15      16        4.8
 2 Coney Isl… Jewish  John … 2 ¾ cups a…      301    17    31       7        4.6
 3 Diana's H… Austra… CHIPP… 1 ½ cups w…       64     3     9       1        4.3
 4 Chilean P… Chilean Heidi  ½ cup chop…      106     9     7       1        5  
 5 Tex-Mex S… Tex-Mex Ann    2 cups all…      449    23    58       7        3.8
 6 Newfoundl… Canadi… MomWh… 1 (3 pound…      958    24   144      46        4.4
 7 Pasta e C… Italian Buckw… 1 cup dry …      378    10    59      14        4.3
 8 Lemon Pop… Amish … Laura… 2 cups all…      157     6    25       2        4.6
 9 Pan con T… Spanish Luis … 1 large to…      322    16    39       7        5  
10 Traci's A… Filipi… Traci… 2 tablespo…        4     0     1       0        4.7
# ℹ 2,048 more rows
# ℹ 6 more variables: total_ratings <dbl>, reviews <dbl>, prep_time <dbl>,
#   cook_time <dbl>, total_time <dbl>, servings <dbl>
…
    country %in% c("Bangladeshi", "Chinese", "Indian", "Indonesian", "Israeli", 
                   "Japanese", "Jewish", "Korean", "Lebanese", "Malaysian", "Pakistani", 
                   "Persian", "Thai", "Turkish", "Vietnamese") ~ "Asia",
    
    country %in% c("Australian and New Zealander") ~ "Oceania",
    
    country %in% c("South African", "Jamaican", "Cuban", "Puerto Rican") ~ "Caribbean/Africa",
    
    TRUE ~ "Other"
  ))
  
cuisines_cleaned

# A tibble: 2,058 × 16
   name       country author ingredients calories   fat carbs protein avg_rating
   <chr>      <chr>   <chr>  <chr>          <dbl> <dbl> <dbl>   <dbl>      <dbl>
 1 Saganaki … Greek   John … 1 (4 ounce…      391    25    15      16        4.8
 2 Coney Isl… Jewish  John … 2 ¾ cups a…      301    17    31       7        4.6
 3 Diana's H… Austra… CHIPP… 1 ½ cups w…       64     3     9       1        4.3
 4 Chilean P… Chilean Heidi  ½ cup chop…      106     9     7       1        5  
 5 Tex-Mex S… Tex-Mex Ann    2 cups all…      449    23    58       7        3.8
 6 Newfoundl… Canadi… MomWh… 1 (3 pound…      958    24   144      46        4.4
 7 Pasta e C… Italian Buckw… 1 cup dry …      378    10    59      14        4.3
 8 Lemon Pop… Amish … Laura… 2 cups all…      157     6    25       2        4.6
 9 Pan con T… Spanish Luis … 1 large to…      322    16    39       7        5  
10 Traci's A… Filipi… Traci… 2 tablespo…        4     0     1       0        4.7
# ℹ 2,048 more rows
# ℹ 7 more variables: total_ratings <dbl>, reviews <dbl>, prep_time <dbl>,
#   cook_time <dbl>, total_time <dbl>, servings <dbl>, continent <chr>

#Data Munging
cuisines_cleaned %>%
  mutate(
    name = as.factor(name),
    country = as.factor(country),
    author = as.factor(author),
    continent = as.factor(continent)
  ) %>%

  # Arrange the Qual variables first, Quant next
  dplyr::relocate(where(is.factor), .after = name)

# A tibble: 2,058 × 16
   name        country author continent ingredients calories   fat carbs protein
   <fct>       <fct>   <fct>  <fct>     <chr>          <dbl> <dbl> <dbl>   <dbl>
 1 Saganaki (… Greek   John … Europe    1 (4 ounce…      391    25    15      16
 2 Coney Isla… Jewish  John … Asia      2 ¾ cups a…      301    17    31       7
 3 Diana's Ha… Austra… CHIPP… Oceania   1 ½ cups w…       64     3     9       1
 4 Chilean Pe… Chilean Heidi  South Am… ½ cup chop…      106     9     7       1
 5 Tex-Mex Sh… Tex-Mex Ann    North Am… 2 cups all…      449    23    58       7
 6 Newfoundla… Canadi… MomWh… North Am… 1 (3 pound…      958    24   144      46
 7 Pasta e Ce… Italian Buckw… Europe    1 cup dry …      378    10    59      14
 8 Lemon Popp… Amish … Laura… North Am… 2 cups all…      157     6    25       2
 9 Pan con To… Spanish Luis … Europe    1 large to…      322    16    39       7
10 Traci's Ad… Filipi… Traci… Other     2 tablespo…        4     0     1       0
# ℹ 2,048 more rows
# ℹ 7 more variables: avg_rating <dbl>, total_ratings <dbl>, reviews <dbl>,
#   prep_time <dbl>, cook_time <dbl>, total_time <dbl>, servings <dbl>
…
