Crimedataset – Welcome to A1
…
# A tibble: 5 × 3
  city_name   offense_type                             n
  <fct>       <fct>                                <int>
1 Chicago     murder and nonnegligent manslaughter   499
2 Los Angeles murder and nonnegligent manslaughter   409
3 Louisville  murder and nonnegligent manslaughter    63
4 Fort Worth  murder and nonnegligent manslaughter    44
5 Los Angeles negligent manslaughter                   1

homicides15_tbl_df_cleaned %>%
  count(location_type) %>%
  arrange(desc(n))

# A tibble: 22 × 2
   location_type          n
   <fct>              <int>
 1 street               595
 2 residence            215
 3 private vehicle       54
 4 vehicle parking       42
 5 green space           30
 6 other open space      24
 7 other                 12
 8 bar/club               8
 9 commercial vehicle     6
10 hotel                  5
# ℹ 12 more rows
…
# A tibble: 1 × 3
  median_year mean_hour sd_hour
        <dbl>     <dbl>   <dbl>
1        2015      12.2    8.13

homicides15_tbl_df_cleaned <- homicides15_tbl_df_cleaned %>%
  mutate(
    year = year(date_single),
    month = month(date_single, label = TRUE, abbr = TRUE),  # gives Jan, Feb, Mar...
    day = day(date_single),
    hour = hour(date_single)
  )
homicides15_tbl_df_cleaned

# A tibble: 1,016 × 19
   city_name offense_code offense_type   address location_type location_category
   <fct>     <fct>        <fct>          <fct>   <fct>         <fct>            
 1 Chicago   09A          murder and no… 050XX … street        street           
 2 Chicago   09A          murder and no… 035XX … residence     residence        
 3 Chicago   09A          murder and no… 093XX … street        street           
 4 Chicago   09A          murder and no… 022XX … street        street           
 5 Chicago   09A          murder and no… 022XX … street        street           
 6 Chicago   09A          murder and no… 012XX … private vehi… vehicle          
 7 Chicago   09A          murder and no… 011XX … residence     residence        
 8 Chicago   09A          murder and no… 000XX … street        street           
 9 Chicago   09A          murder and no… 042XX … street        street           
10 Chicago   09A          murder and no… 039XX … street        street           
# ℹ 1,006 more rows
# ℹ 13 more variables: fips_county <fct>, tract <fct>, uid <int>,
#   date_single <dttm>, longitude <dbl>, latitude <dbl>, fips_state <int>,
#   block_group <int>, block <int>, year <dbl>, month <ord>, day <int>,
#   hour <int>
…
homicides_block_counts <- homicides15_tbl_df_cleaned %>%
  drop_na(block, block_group, city_name) %>%
  count(city_name, block, block_group, name = "homicide_count")

homicides_block_counts

# A tibble: 294 × 4
   city_name block block_group homicide_count
   <fct>     <int>       <int>          <int>
 1 Chicago    1000           1              9
 2 Chicago    1001           1              8
 3 Chicago    1002           1             15
 4 Chicago    1003           1             10
 5 Chicago    1004           1              7
 6 Chicago    1005           1             10
 7 Chicago    1006           1              9
 8 Chicago    1007           1             12
 9 Chicago    1008           1              7
10 Chicago    1009           1              4
# ℹ 284 more rows

homicides_counts <- homicides15_tbl_df_cleaned %>%
  dplyr::count(longitude, latitude, name = "count")

homicides_counts

# A tibble: 843 × 3
   longitude latitude count
       <dbl>    <dbl> <int>
 1     -119.     34.2     1
 2     -119.     34.3     2
 3     -119.     34.2     2
 4     -119.     34.2     1
 5     -119.     34.2     1
 6     -119.     34.2     2
 7     -119.     34.2     2
 8     -119.     34.2     1
 9     -118.     34.2     2
10     -118.     34.2     2
# ℹ 833 more rows
…
