A2 Map Dataset – Welcome to A1
…
Rows: 22549 Columns: 17
── Column specification ────────────────────────────────────────────────────────
Delimiter: ","
chr   (4): sensor-type, individual-taxon-canonical-name, individual-local-id...
dbl  (10): event-id, location-long, location-lat, comments, gps:satellite-co...
lgl   (2): visible, manually-marked-outlier
time  (1): timestamp

ℹ Use `spec()` to retrieve the full column specification for this data.
ℹ Specify the column types or set `show_col_types = FALSE` to quiet this message.

cranes

# A tibble: 22,549 × 17
     event_id visible timestamp location_long location_lat comments
        <dbl> <lgl>   <time>            <dbl>        <dbl>    <dbl>
 1 8087306349 TRUE    33:25              111.         48.5     1295
 2 8087306348 TRUE    55:23              111.         48.5     1296
 3 8087306347 TRUE    13:05              111.         48.5     1297
 4 8087306346 TRUE    33:50              111.         48.5     1298
 5 8087306345 TRUE    17:32              111.         48.5     1299
 6 8087306344 TRUE    33:10              111.         48.5     1300
 7 8087306355 TRUE    55:49              111.         48.5     1315
 8 8087306354 TRUE    16:15              111.         48.5     1316
 9 8087306353 TRUE    21:47              111.         48.5     1317
10 8087306352 TRUE    41:55              111.         48.5     1318
# ℹ 22,539 more rows
# ℹ 11 more variables: gps_satellite_count <dbl>, ground_speed <dbl>,
#   heading <dbl>, height_above_ellipsoid <dbl>, manually_marked_outlier <lgl>,
#   tag_voltage <dbl>, sensor_type <chr>,
#   individual_taxon_canonical_name <chr>, tag_local_identifier <dbl>,
#   individual_local_identifier <chr>, study_name <chr>
…
