UFO Sightings – Welcome to A1
…
ufo_sightings_modified <- ufo_sightings %>%tidyr::drop_na()
ufo_sightings_modified

# A tibble: 66,516 × 11
   date_time        city_area  state country ufo_shape encounter_length
   <chr>            <chr>      <chr> <chr>   <chr>                <dbl>
 1 10/10/1949 20:30 san marcos tx    us      cylinder              2700
 2 10/10/1956 21:00 edna       tx    us      circle                  20
 3 10/10/1960 20:00 kaneohe    hi    us      light                  900
 4 10/10/1961 19:00 bristol    tn    us      sphere                 300
 5 10/10/1965 23:45 norwalk    ct    us      disk                  1200
 6 10/10/1966 20:00 pell city  al    us      disk                   180
 7 10/10/1966 21:00 live oak   fl    us      disk                   120
 8 10/10/1968 13:00 hawthorne  ca    us      circle                 300
 9 10/10/1968 19:00 brevard    nc    us      fireball               180
10 10/10/1970 16:00 bellmore   ny    us      disk                  1800
# ℹ 66,506 more rows
# ℹ 5 more variables: described_encounter_length <chr>, description <chr>,
#   date_documented <chr>, latitude <dbl>, longitude <dbl>

Remove Redundant Column

#Remove the described encounter length column because it has been convertd into time in another column.
ufo_sightings_modified2 <- ufo_sightings_modified %>% 
  dplyr::select(-c(described_encounter_length))
ufo_sightings_modified2

# A tibble: 66,516 × 10
   date_time      city_area state country ufo_shape encounter_length description
   <chr>          <chr>     <chr> <chr>   <chr>                <dbl> <chr>      
 1 10/10/1949 20… san marc… tx    us      cylinder              2700 This event…
 2 10/10/1956 21… edna      tx    us      circle                  20 My older b…
 3 10/10/1960 20… kaneohe   hi    us      light                  900 AS a Marin…
 4 10/10/1961 19… bristol   tn    us      sphere                 300 My father …
 5 10/10/1965 23… norwalk   ct    us      disk                  1200 A bright o…
 6 10/10/1966 20… pell city al    us      disk                   180 Strobe Lig…
 7 10/10/1966 21… live oak  fl    us      disk                   120 Saucer zap…
 8 10/10/1968 13… hawthorne ca    us      circle                 300 ROUND &#44…
 9 10/10/1968 19… brevard   nc    us      fireball               180 silent red…
10 10/10/1970 16… bellmore  ny    us      disk                  1800 silver dis…
# ℹ 66,506 more rows
# ℹ 3 more variables: date_documented <chr>, latitude <dbl>, longitude <dbl>

Data Munging

#Seperating date and time from date_time column
ufo_sightings_modified3 <- ufo_sightings_modified2 %>% separate(date_time, c('date', 'time'), " ")
ufo_sightings_modified3

# A tibble: 66,516 × 11
   date     time  city_area state country ufo_shape encounter_length description
   <chr>    <chr> <chr>     <chr> <chr>   <chr>                <dbl> <chr>      
 1 10/10/1… 20:30 san marc… tx    us      cylinder              2700 This event…
 2 10/10/1… 21:00 edna      tx    us      circle                  20 My older b…
 3 10/10/1… 20:00 kaneohe   hi    us      light                  900 AS a Marin…
 4 10/10/1… 19:00 bristol   tn    us      sphere                 300 My father …
 5 10/10/1… 23:45 norwalk   ct    us      disk                  1200 A bright o…
 6 10/10/1… 20:00 pell city al    us      disk                   180 Strobe Lig…
 7 10/10/1… 21:00 live oak  fl    us      disk                   120 Saucer zap…
 8 10/10/1… 13:00 hawthorne ca    us      circle                 300 ROUND &#44…
 9 10/10/1… 19:00 brevard   nc    us      fireball               180 silent red…
10 10/10/1… 16:00 bellmore  ny    us      disk                  1800 silver dis…
# ℹ 66,506 more rows
# ℹ 3 more variables: date_documented <chr>, latitude <dbl>, longitude <dbl>

#Seperating month, day and year from the date column
ufo_sightings_modified4 <- ufo_sightings_modified3 %>% tidyr::separate(date, c("month", "day", "year"), "/")
ufo_sightings_modified4

# A tibble: 66,516 × 13
   month day   year  time  city_area  state country ufo_shape encounter_length
   <chr> <chr> <chr> <chr> <chr>      <chr> <chr>   <chr>                <dbl>
 1 10    10    1949  20:30 san marcos tx    us      cylinder              2700
 2 10    10    1956  21:00 edna       tx    us      circle                  20
 3 10    10    1960  20:00 kaneohe    hi    us      light                  900
 4 10    10    1961  19:00 bristol    tn    us      sphere                 300
 5 10    10    1965  23:45 norwalk    ct    us      disk                  1200
 6 10    10    1966  20:00 pell city  al    us      disk                   180
 7 10    10    1966  21:00 live oak   fl    us      disk                   120
 8 10    10    1968  13:00 hawthorne  ca    us      circle                 300
 9 10    10    1968  19:00 brevard    nc    us      fireball               180
10 10    10    1970  16:00 bellmore   ny    us      disk                  1800
# ℹ 66,506 more rows
# ℹ 4 more variables: description <chr>, date_documented <chr>, latitude <dbl>,
#   longitude <dbl>
…
ufo_sightings_modified5

# A tibble: 66,516 × 13
   month   day  year time  city_area  state country ufo_shape encounter_length
   <fct> <dbl> <dbl> <chr> <chr>      <fct> <fct>   <fct>                <dbl>
 1 Oct      10  1949 20:30 san marcos tx    us      cylinder              2700
 2 Oct      10  1956 21:00 edna       tx    us      circle                  20
 3 Oct      10  1960 20:00 kaneohe    hi    us      light                  900
 4 Oct      10  1961 19:00 bristol    tn    us      sphere                 300
 5 Oct      10  1965 23:45 norwalk    ct    us      disk                  1200
 6 Oct      10  1966 20:00 pell city  al    us      disk                   180
 7 Oct      10  1966 21:00 live oak   fl    us      disk                   120
 8 Oct      10  1968 13:00 hawthorne  ca    us      circle                 300
 9 Oct      10  1968 19:00 brevard    nc    us      fireball               180
10 Oct      10  1970 16:00 bellmore   ny    us      disk                  1800
# ℹ 66,506 more rows
# ℹ 4 more variables: description <chr>, date_documented <chr>, latitude <dbl>,
#   longitude <dbl>
…
